%YAML 1.1
%TAG !u! tag:unity3d.com,2011:
--- !u!221 &22100000
AnimatorOverrideController:
  m_ObjectHideFlags: 0
  m_CorrespondingSourceObject: {fileID: 0}
  m_PrefabInstance: {fileID: 0}
  m_PrefabAsset: {fileID: 0}
  m_Name: GoldResourceRitualPickupOverrideController_Screen
  m_Controller: {fileID: 9100000, guid: 86e94943283f5bd4685a49827da1bbaa, type: 2}
  m_Clips:
  - m_OriginalClip: {fileID: 7400000, guid: 8df2ff3f2ab7a94469bb441b63c8e758, type: 2}
    m_OverrideClip: {fileID: 7400000, guid: d34c26564fd462e41aeee45b8ac86926, type: 2}
