%YAML 1.1
%TAG !u! tag:unity3d.com,2011:
--- !u!1 &6313809756263443185
GameObject:
  m_ObjectHideFlags: 0
  m_CorrespondingSourceObject: {fileID: 0}
  m_PrefabInstance: {fileID: 0}
  m_PrefabAsset: {fileID: 0}
  serializedVersion: 6
  m_Component:
  - component: {fileID: 7955293452631761444}
  - component: {fileID: 6313809756263443186}
  m_Layer: 0
  m_Name: MenuEntityPrefab
  m_TagString: Untagged
  m_Icon: {fileID: 0}
  m_NavMeshLayer: 0
  m_StaticEditorFlags: 0
  m_IsActive: 1
--- !u!4 &7955293452631761444
Transform:
  m_ObjectHideFlags: 0
  m_CorrespondingSourceObject: {fileID: 0}
  m_PrefabInstance: {fileID: 0}
  m_PrefabAsset: {fileID: 0}
  m_GameObject: {fileID: 6313809756263443185}
  m_LocalRotation: {x: 0, y: 0, z: 0, w: 1}
  m_LocalPosition: {x: 63.74991, y: 65.37168, z: 0}
  m_LocalScale: {x: 1, y: 1, z: 1}
  m_Children: []
  m_Father: {fileID: 0}
  m_RootOrder: 0
  m_LocalEulerAnglesHint: {x: 0, y: 0, z: 0}
--- !u!114 &6313809756263443186
MonoBehaviour:
  m_ObjectHideFlags: 0
  m_CorrespondingSourceObject: {fileID: 0}
  m_PrefabInstance: {fileID: 0}
  m_PrefabAsset: {fileID: 0}
  m_GameObject: {fileID: 6313809756263443185}
  m_Enabled: 1
  m_EditorHideFlags: 0
  m_Script: {fileID: 11500000, guid: 361a66671e010564aaf1fb1413080205, type: 3}
  m_Name: 
  m_EditorClassIdentifier: 
  buttonClicked: 0
  buttonClickAction: 0
  buttons2:
    editorEnumToMenuButtons:
    - type: 0
      button: {fileID: 0}
    - type: 0
      button: {fileID: 0}
  buttons2b:
    editorEnumToMenuButtons: []
  derp: 0
  buttonsX2B:
    editorEnumToMenuButtons: []
