%YAML 1.1
%TAG !u! tag:unity3d.com,2011:
--- !u!221 &22100000
AnimatorOverrideController:
  m_ObjectHideFlags: 0
  m_CorrespondingSourceObject: {fileID: 0}
  m_PrefabInstance: {fileID: 0}
  m_PrefabAsset: {fileID: 0}
  m_Name: FoodResourceBuffGainOverrideController
  m_Controller: {fileID: 9100000, guid: d9d656a812e7ede4eae449e75bf2d86f, type: 2}
  m_Clips:
  - m_OriginalClip: {fileID: 7400000, guid: 32647ae7fb1c3844c8108045830bef2a, type: 2}
    m_OverrideClip: {fileID: 7400000, guid: d75e862757fd8f246b82c9f151c3ced8, type: 2}
