%YAML 1.1
%TAG !u! tag:unity3d.com,2011:
--- !u!114 &11400000
MonoBehaviour:
  m_ObjectHideFlags: 0
  m_CorrespondingSourceObject: {fileID: 0}
  m_PrefabInstance: {fileID: 0}
  m_PrefabAsset: {fileID: 0}
  m_GameObject: {fileID: 0}
  m_Enabled: 1
  m_EditorHideFlags: 0
  m_Script: {fileID: 11500000, guid: 29d7a1d502aef9f4dbba923a3785f0ef, type: 3}
  m_Name: FarmAssets
  m_EditorClassIdentifier: LandsGameAssembly::BuildingAssetsDataScriptableObject
  buildingAdvancedType: 120
  mainColor: {r: 1, g: 0.7921569, b: 0.21960784, a: 1}
  borderColor: {r: 0.5058824, g: 0.24705882, b: 0.07450981, a: 1}
  buildingIconSprite: {fileID: 21300000, guid: 612b1bdcf5c4f7e46b7a3d842068bbd5, type: 3}
  buildingName: Farm
  buildingDescription: In the far frontiers, subsistance rested atop each modest huts.
  workerName: Farmer
  workerNamePlural: Farmers
  hasTrainingButton: 1
  trainingSentence: Train farmer
  productionDescription: ' food per sec'
  additionalProductionDescription0: 
  additionalTrainingSentences: []
  additionalBackgroundArtSprite: {fileID: 0}
