%YAML 1.1
%TAG !u! tag:unity3d.com,2011:
--- !u!114 &11400000
MonoBehaviour:
  m_ObjectHideFlags: 0
  m_CorrespondingSourceObject: {fileID: 0}
  m_PrefabInstance: {fileID: 0}
  m_PrefabAsset: {fileID: 0}
  m_GameObject: {fileID: 0}
  m_Enabled: 1
  m_EditorHideFlags: 0
  m_Script: {fileID: 11500000, guid: 29d7a1d502aef9f4dbba923a3785f0ef, type: 3}
  m_Name: HouseB2Assets
  m_EditorClassIdentifier: LandsGameAssembly::BuildingAssetsDataScriptableObject
  buildingAdvancedType: 18120
  mainColor: {r: 0.6132076, g: 0.5143772, b: 0.47147563, a: 1}
  borderColor: {r: 0.189, g: 0.15871154, b: 0.14538461, a: 1}
  buildingIconSprite: {fileID: 21300000, guid: 6b61a5a5352fce341ac307fa336e3803, type: 3}
  buildingName: Great Villa
  buildingDescription: All their hard work, for this.
  workerName: Room
  workerNamePlural: Rooms
  hasTrainingButton: 1
  trainingSentence: Add room
  productionDescription: ' nearby advanced worker limit'
  additionalProductionDescription0: 
  additionalTrainingSentences: []
  additionalBackgroundArtSprite: {fileID: 0}
