%YAML 1.1
%TAG !u! tag:unity3d.com,2011:
--- !u!114 &11400000
MonoBehaviour:
  m_ObjectHideFlags: 0
  m_CorrespondingSourceObject: {fileID: 0}
  m_PrefabInstance: {fileID: 0}
  m_PrefabAsset: {fileID: 0}
  m_GameObject: {fileID: 0}
  m_Enabled: 1
  m_EditorHideFlags: 0
  m_Script: {fileID: 11500000, guid: 29d7a1d502aef9f4dbba923a3785f0ef, type: 3}
  m_Name: LumberMillB4Assets
  m_EditorClassIdentifier: LandsGameAssembly::BuildingAssetsDataScriptableObject
  buildingAdvancedType: 13140
  mainColor: {r: 0.6, g: 0.8980392, b: 0.3137255, a: 1}
  borderColor: {r: 0.078431375, g: 0.13725491, b: 0.019607844, a: 1}
  buildingIconSprite: {fileID: 21300000, guid: 6b61a5a5352fce341ac307fa336e3803, type: 3}
  buildingName: Superior Watch Post
  buildingDescription: Stories of striders spun by twig snaps and bird song.
  workerName: Lumberjack
  workerNamePlural: Lumberjacks
  hasTrainingButton: 1
  trainingSentence: Train lumberjack
  productionDescription: ' wood per sec'
  additionalProductionDescription0: 
  additionalTrainingSentences: []
  additionalBackgroundArtSprite: {fileID: 0}
