%YAML 1.1
%TAG !u! tag:unity3d.com,2011:
--- !u!221 &22100000
AnimatorOverrideController:
  m_ObjectHideFlags: 0
  m_CorrespondingSourceObject: {fileID: 0}
  m_PrefabInstance: {fileID: 0}
  m_PrefabAsset: {fileID: 0}
  m_Name: BasicExtraPersonRitualPickupOverrideController
  m_Controller: {fileID: 9100000, guid: 832ce3e68fddaf24c9886d25cf6e36be, type: 2}
  m_Clips:
  - m_OriginalClip: {fileID: 7400000, guid: 664e92a4e8d321746bae2d3b3f617298, type: 2}
    m_OverrideClip: {fileID: 7400000, guid: 6cbf157a93851e64e947992c4cd8c905, type: 2}
