%YAML 1.1
%TAG !u! tag:unity3d.com,2011:
--- !u!74 &7400000
AnimationClip:
  m_ObjectHideFlags: 0
  m_CorrespondingSourceObject: {fileID: 0}
  m_PrefabInstance: {fileID: 0}
  m_PrefabAsset: {fileID: 0}
  m_Name: RitualValidNextStepIndicator
  serializedVersion: 6
  m_Legacy: 0
  m_Compressed: 0
  m_UseHighQualityCurve: 1
  m_RotationCurves: []
  m_CompressedRotationCurves: []
  m_EulerCurves: []
  m_PositionCurves: []
  m_ScaleCurves: []
  m_FloatCurves: []
  m_PPtrCurves:
  - curve:
    - time: 0
      value: {fileID: -2079714712020343963, guid: daf48e4f327b7cf478794684dbdc8dbc,
        type: 3}
    - time: 0.25
      value: {fileID: 2436759659313366613, guid: daf48e4f327b7cf478794684dbdc8dbc,
        type: 3}
    - time: 0.5
      value: {fileID: -2395224196791318360, guid: daf48e4f327b7cf478794684dbdc8dbc,
        type: 3}
    - time: 0.75
      value: {fileID: 239057083405976701, guid: daf48e4f327b7cf478794684dbdc8dbc,
        type: 3}
    - time: 1
      value: {fileID: -5322339875414863182, guid: daf48e4f327b7cf478794684dbdc8dbc,
        type: 3}
    - time: 1.25
      value: {fileID: 5388716663789974763, guid: daf48e4f327b7cf478794684dbdc8dbc,
        type: 3}
    - time: 1.5
      value: {fileID: -8598574746733644181, guid: daf48e4f327b7cf478794684dbdc8dbc,
        type: 3}
    - time: 1.75
      value: {fileID: -386334977405365380, guid: daf48e4f327b7cf478794684dbdc8dbc,
        type: 3}
    attribute: m_Sprite
    path: 
    classID: 212
    script: {fileID: 0}
  m_SampleRate: 4
  m_WrapMode: 0
  m_Bounds:
    m_Center: {x: 0, y: 0, z: 0}
    m_Extent: {x: 0, y: 0, z: 0}
  m_ClipBindingConstant:
    genericBindings:
    - serializedVersion: 2
      path: 0
      attribute: 0
      script: {fileID: 0}
      typeID: 212
      customType: 23
      isPPtrCurve: 1
    pptrCurveMapping:
    - {fileID: -2079714712020343963, guid: daf48e4f327b7cf478794684dbdc8dbc, type: 3}
    - {fileID: 2436759659313366613, guid: daf48e4f327b7cf478794684dbdc8dbc, type: 3}
    - {fileID: -2395224196791318360, guid: daf48e4f327b7cf478794684dbdc8dbc, type: 3}
    - {fileID: 239057083405976701, guid: daf48e4f327b7cf478794684dbdc8dbc, type: 3}
    - {fileID: -5322339875414863182, guid: daf48e4f327b7cf478794684dbdc8dbc, type: 3}
    - {fileID: 5388716663789974763, guid: daf48e4f327b7cf478794684dbdc8dbc, type: 3}
    - {fileID: -8598574746733644181, guid: daf48e4f327b7cf478794684dbdc8dbc, type: 3}
    - {fileID: -386334977405365380, guid: daf48e4f327b7cf478794684dbdc8dbc, type: 3}
  m_AnimationClipSettings:
    serializedVersion: 2
    m_AdditiveReferencePoseClip: {fileID: 0}
    m_AdditiveReferencePoseTime: 0
    m_StartTime: 0
    m_StopTime: 2
    m_OrientationOffsetY: 0
    m_Level: 0
    m_CycleOffset: 0
    m_HasAdditiveReferencePose: 0
    m_LoopTime: 0
    m_LoopBlend: 0
    m_LoopBlendOrientation: 0
    m_LoopBlendPositionY: 0
    m_LoopBlendPositionXZ: 0
    m_KeepOriginalOrientation: 0
    m_KeepOriginalPositionY: 1
    m_KeepOriginalPositionXZ: 0
    m_HeightFromFeet: 0
    m_Mirror: 0
  m_EditorCurves: []
  m_EulerEditorCurves: []
  m_HasGenericRootTransform: 0
  m_HasMotionFloatCurves: 0
  m_Events: []
