%YAML 1.1
%TAG !u! tag:unity3d.com,2011:
--- !u!114 &11400000
MonoBehaviour:
  m_ObjectHideFlags: 0
  m_CorrespondingSourceObject: {fileID: 0}
  m_PrefabInstance: {fileID: 0}
  m_PrefabAsset: {fileID: 0}
  m_GameObject: {fileID: 0}
  m_Enabled: 1
  m_EditorHideFlags: 0
  m_Script: {fileID: 11500000, guid: 577bcddb8c1346f41be3fc0ba7640d2e, type: 3}
  m_Name: LumberMillB3Stats
  m_EditorClassIdentifier: 
  buildingAdvancedType: 13130
  impliedBuildingBaseType: 130
  baseBuildOrTierUpgradeCost:
    gold: 0
    food: 0
    wood: 500
    stone: 0
    ore: 0
    spirit: 0
  baseBuildOrTierUpgradeTime: 2
  baseTrainingCost:
    gold: 0
    food: 1
    wood: 0
    stone: 0
    ore: 0
    spirit: 0
  baseTrainingTime: 0.1
  customTrainingCost0: 0
  customTrainingCost1: 0
  customTrainingCost2: 0
  customTrainingCost3: 0
  baseFogSightRadius: 4
  isFarm: 0
  isLumberMill: 1
  isTownHall: 0
  isQuarry: 0
  isMine: 0
  isVariousFoodWoodStoneOreProduction: 1
  isShrine: 0
  isGuild: 0
  buildingCategoryType: 20
  baseResourceProductionCoefficients:
    gold: 0
    food: 0
    wood: 1
    stone: 0
    ore: 0
    spirit: 0
  prototypeBuffGiverAreaComponents:
  - buffType: 230
    buffAreaShapeType: 110
    buffAreaRadius: 1
    buffStrengthFactor: 1
  prototypeRitualPickupComponent:
    ritualPickupType: 220
    ritualPickupStrengthFactor: 1
    textColor: {r: 0.6, g: 0.8980392, b: 0.3137255, a: 0}
  buildingTierRevealPrerequisites:
    noPrerequisites: 0
    trainedWorkersAtSelf: 0
    minimumResources:
      gold: 0
      food: 0
      wood: 0
      stone: 0
      ore: 0
      spirit: 0
    minimumResourceGains:
      gold: 0
      food: 0
      wood: 0
      stone: 0
      ore: 0
      spirit: 0
    editorRequiredBuildings: []
    editorRequiredMyths: []
    overridePayment:
      gold: 0
      food: 0
      wood: 0
      stone: 0
      ore: 0
      spirit: 0
  buildingTierUnlockPreqrequisites:
    noPrerequisites: 0
    trainedWorkersAtSelf: 0
    minimumResources:
      gold: 0
      food: 0
      wood: 0
      stone: 0
      ore: 0
      spirit: 0
    minimumResourceGains:
      gold: 0
      food: 0
      wood: 0
      stone: 0
      ore: 0
      spirit: 0
    editorRequiredBuildings: []
    editorRequiredMyths: []
    overridePayment:
      gold: 0
      food: 0
      wood: 0
      stone: 0
      ore: 0
      spirit: 0
