%YAML 1.1
%TAG !u! tag:unity3d.com,2011:
--- !u!114 &11400000
MonoBehaviour:
  m_ObjectHideFlags: 0
  m_CorrespondingSourceObject: {fileID: 0}
  m_PrefabInstance: {fileID: 0}
  m_PrefabAsset: {fileID: 0}
  m_GameObject: {fileID: 0}
  m_Enabled: 1
  m_EditorHideFlags: 0
  m_Script: {fileID: 11500000, guid: 577bcddb8c1346f41be3fc0ba7640d2e, type: 3}
  m_Name: TempleStats
  m_EditorClassIdentifier: 
  buildingAdvancedType: 260
  impliedBuildingBaseType: 260
  baseBuildOrTierUpgradeCost:
    gold: 0
    food: 0
    wood: 0
    stone: 210
    ore: 0
    spirit: 0
  baseBuildOrTierUpgradeTime: 2
  baseTrainingCost:
    gold: 0
    food: 100
    wood: 0
    stone: 0
    ore: 0
    spirit: 0
  baseTrainingTime: 2
  customTrainingCost0: 0
  customTrainingCost1: 0
  customTrainingCost2: 0
  customTrainingCost3: 0
  baseFogSightRadius: 2
  isFarm: 0
  isLumberMill: 0
  isTownHall: 0
  isQuarry: 0
  isMine: 0
  isVariousFoodWoodStoneOreProduction: 0
  isShrine: 0
  isGuild: 0
  buildingCategoryType: 30
  baseResourceProductionCoefficients:
    gold: 0
    food: 0
    wood: 0
    stone: 0
    ore: 0
    spirit: 0
  prototypeBuffGiverAreaComponents:
  - buffType: 150
    buffAreaShapeType: 130
    buffAreaRadius: 3
    buffStrengthFactor: 1
  prototypeRitualPickupComponent:
    ritualPickupType: 410
    ritualPickupStrengthFactor: 3
    textColor: {r: 0.37254903, g: 0.8039216, b: 0.89411765, a: 0}
  buildingTierRevealPrerequisites:
    noPrerequisites: 0
    trainedWorkersAtSelf: 0
    minimumResources:
      gold: 0
      food: 0
      wood: 0
      stone: 0
      ore: 0
      spirit: 0
    minimumResourceGains:
      gold: 0
      food: 0
      wood: 0
      stone: 0
      ore: 0
      spirit: 0
    editorRequiredBuildings: []
    editorRequiredMyths: []
    overridePayment:
      gold: 0
      food: 0
      wood: 0
      stone: 0
      ore: 0
      spirit: 0
  buildingTierUnlockPreqrequisites:
    noPrerequisites: 0
    trainedWorkersAtSelf: 0
    minimumResources:
      gold: 0
      food: 0
      wood: 0
      stone: 0
      ore: 0
      spirit: 0
    minimumResourceGains:
      gold: 0
      food: 0
      wood: 0
      stone: 0
      ore: 0
      spirit: 0
    editorRequiredBuildings: []
    editorRequiredMyths: []
    overridePayment:
      gold: 0
      food: 0
      wood: 0
      stone: 0
      ore: 0
      spirit: 0
